<!DOCTYPE svg PUBLIC "-//W3C//DTD SVG 20010904//EN" "http://www.w3.org/TR/2001/REC-SVG-20010904/DTD/svg10.dtd">
<svg version="1.0" xmlns="http://www.w3.org/2000/svg" width="676px" height="210px" viewBox="0 0 6760 2100" preserveAspectRatio="xMidYMid meet">
<g id="layer101" fill="#000000" stroke="none">
 <path d="M1130 2069 c145 -16 388 -45 540 -65 151 -20 295 -37 320 -38 25 -2 52 -6 60 -9 8 -4 89 -18 180 -32 91 -13 242 -38 335 -55 94 -17 196 -35 229 -41 32 -5 86 -16 120 -24 35 -8 86 -14 114 -14 32 1 61 -4 76 -15 14 -8 67 -25 118 -36 349 -77 899 -233 1178 -335 84 -30 163 -55 176 -55 13 0 33 -8 44 -17 27 -24 249 -112 283 -113 15 0 27 -4 27 -9 0 -13 120 -70 162 -76 21 -3 48 -16 60 -28 13 -12 100 -61 194 -109 438 -222 847 -483 1257 -803 82 -63 150 -115 153 -115 2 0 4 454 4 1010 l0 1010 -2947 -1 -2948 -1 265 -29z"/>
 </g>
<g id="layer102" fill="#636363" stroke="none">
 <path d="M898 2093 c12 -2 32 -2 45 0 12 2 2 4 -23 4 -25 0 -35 -2 -22 -4z"/>
 <path d="M998 2083 c12 -2 32 -2 45 0 12 2 2 4 -23 4 -25 0 -35 -2 -22 -4z"/>
 <path d="M1098 2073 c12 -2 30 -2 40 0 9 3 -1 5 -23 4 -22 0 -30 -2 -17 -4z"/>
 <path d="M1188 2063 c12 -2 30 -2 40 0 9 3 -1 5 -23 4 -22 0 -30 -2 -17 -4z"/>
 <path d="M1278 2053 c12 -2 30 -2 40 0 9 3 -1 5 -23 4 -22 0 -30 -2 -17 -4z"/>
 <path d="M1368 2043 c12 -2 30 -2 40 0 9 3 -1 5 -23 4 -22 0 -30 -2 -17 -4z"/>
 <path d="M1453 2033 c9 -2 25 -2 35 0 9 3 1 5 -18 5 -19 0 -27 -2 -17 -5z"/>
 <path d="M1538 2023 c12 -2 30 -2 40 0 9 3 -1 5 -23 4 -22 0 -30 -2 -17 -4z"/>
 <path d="M1618 2013 c12 -2 30 -2 40 0 9 3 -1 5 -23 4 -22 0 -30 -2 -17 -4z"/>
 <path d="M1693 2003 c9 -2 25 -2 35 0 9 3 1 5 -18 5 -19 0 -27 -2 -17 -5z"/>
 <path d="M1773 1993 c9 -2 25 -2 35 0 9 3 1 5 -18 5 -19 0 -27 -2 -17 -5z"/>
 <path d="M1843 1983 c9 -2 25 -2 35 0 9 3 1 5 -18 5 -19 0 -27 -2 -17 -5z"/>
 <path d="M2193 1933 c9 -2 25 -2 35 0 9 3 1 5 -18 5 -19 0 -27 -2 -17 -5z"/>
 <path d="M3320 1720 c14 -4 34 -8 45 -8 16 0 15 2 -5 8 -14 4 -34 8 -45 8 -16 0 -15 -2 5 -8z"/>
 <path d="M3645 1640 c11 -5 27 -9 35 -9 9 0 8 4 -5 9 -11 5 -27 9 -35 9 -9 0 -8 -4 5 -9z"/>
 <path d="M3755 1610 c11 -5 27 -9 35 -9 9 0 8 4 -5 9 -11 5 -27 9 -35 9 -9 0 -8 -4 5 -9z"/>
 <path d="M3825 1590 c11 -5 27 -9 35 -9 9 0 8 4 -5 9 -11 5 -27 9 -35 9 -9 0 -8 -4 5 -9z"/>
 <path d="M3895 1570 c11 -5 27 -9 35 -9 9 0 8 4 -5 9 -11 5 -27 9 -35 9 -9 0 -8 -4 5 -9z"/>
 <path d="M3980 1545 c19 -7 42 -13 50 -13 8 0 -1 6 -20 13 -19 7 -42 13 -50 13 -8 0 1 -6 20 -13z"/>
 <path d="M4234 1464 c88 -29 161 -52 163 -50 5 5 -297 106 -312 105 -6 0 62 -25 149 -55z"/>
 <path d="M4465 1386 c17 -7 41 -16 55 -20 20 -5 19 -3 -5 8 -16 7 -41 16 -55 20 -20 5 -19 3 5 -8z"/>
 <path d="M4800 1255 c14 -8 30 -14 35 -14 6 0 -1 6 -15 14 -14 8 -29 14 -35 14 -5 0 1 -6 15 -14z"/>
 <path d="M5020 1160 c19 -11 40 -19 45 -19 6 0 -6 8 -25 19 -19 11 -39 19 -45 19 -5 0 6 -8 25 -19z"/>
 <path d="M5170 1095 c0 -3 72 -41 160 -85 88 -44 160 -78 160 -75 0 3 -72 41 -160 85 -88 44 -160 78 -160 75z"/>
 <path d="M5520 915 c0 -2 18 -14 40 -25 22 -11 40 -18 40 -15 0 2 -18 14 -40 25 -22 11 -40 18 -40 15z"/>
 <path d="M5615 863 c6 -5 37 -25 70 -43 33 -18 56 -28 50 -23 -5 6 -37 26 -70 44 -33 18 -55 28 -50 22z"/>
 <path d="M5850 726 c0 -2 24 -19 53 -37 28 -17 62 -38 75 -47 12 -8 22 -12 22 -9 0 3 -28 23 -62 44 -85 53 -88 55 -88 49z"/>
 <path d="M6015 623 c6 -5 75 -54 155 -108 161 -109 326 -230 470 -343 52 -41 101 -79 108 -85 6 -5 12 -7 12 -4 0 15 -443 346 -635 473 -99 66 -126 83 -110 67z"/>
 </g>
<g id="layer103" fill="#a2a2a2" stroke="none">
 </g>
<g id="layer104" fill="#dedede" stroke="none">
 </g>

</svg>